<?xml version="1.0" encoding="UTF-8"?>
<svg width="28px" height="59px" viewBox="0 0 28 59" version="1.1" xmlns="http://www.w3.org/2000/svg" xmlns:xlink="http://www.w3.org/1999/xlink">
    <!-- Generator: Sketch 50.2 (55047) - http://www.bohemiancoding.com/sketch -->
    <title>Master Tab Copy 6</title>
    <desc>Created with Sketch.</desc>
    <defs></defs>
    <g id="Welcome" stroke="none" stroke-width="1" fill="none" fill-rule="evenodd">
        <g id="Mobile-Module-Overview-Resources" transform="translate(0.000000, -447.000000)" fill="#C16CD8">
            <g id="Module-Menu" transform="translate(0.000000, 90.000000)">
                <path d="M-0.8040636,372.651765 L28.1873969,372.651765 C32.7418743,372.651765 36.7210078,375.729284 37.8661475,380.137449 L43.0350986,400.035099 L-15.6517653,400.035099 L-10.4828142,380.137449 C-9.33767444,375.729284 -5.35854095,372.651765 -0.8040636,372.651765 Z" id="Master-Tab-Copy-6" transform="translate(13.691667, 386.343432) rotate(90.000000) translate(-13.691667, -386.343432) "></path>
            </g>
        </g>
    </g>
</svg>