<?xml version="1.0" encoding="UTF-8"?>
<svg width="28px" height="59px" viewBox="0 0 28 59" version="1.1" xmlns="http://www.w3.org/2000/svg" xmlns:xlink="http://www.w3.org/1999/xlink">
    <!-- Generator: Sketch 50.2 (55047) - http://www.bohemiancoding.com/sketch -->
    <title>Master Tab Copy</title>
    <desc>Created with Sketch.</desc>
    <defs></defs>
    <g id="Welcome" stroke="none" stroke-width="1" fill="none" fill-rule="evenodd">
        <g id="Mobile-Module-Overview-Resources" transform="translate(0.000000, -136.000000)" fill="#F6F6F6" stroke="#979797">
            <g id="Module-Menu" transform="translate(0.000000, 90.000000)">
                <path d="M-15.0052812,88.5350986 L42.3886145,88.5350986 L37.38221,69.2631646 C36.2943272,65.0754079 32.5141504,62.1517653 28.1873969,62.1517653 L-0.8040636,62.1517653 C-5.13081709,62.1517653 -8.9109939,65.0754079 -9.99887665,69.2631646 L-15.0052812,88.5350986 Z" id="Master-Tab-Copy" transform="translate(13.691667, 75.343432) rotate(90.000000) translate(-13.691667, -75.343432) "></path>
            </g>
        </g>
    </g>
</svg>