{
  "entry": {
    "main": [
      "./scripts/main.js",
      "./styles/styles.scss"
    ],
    "signin": [
      "./styles/signin.scss"
    ],
    "customizer": [
      "./scripts/customizer.js"
    ]
  },
  "publicPath": "/app/themes/happybelly",
  "devUrl": "http://happybelly-wp.test",
  "proxyUrl": "http://localhost:3000",
  "cacheBusting": "[name]_[hash:8]",
  "watch": [
    "app/**/*.php",
    "config/**/*.php",
    "resources/views/**/*.php"
  ]
}
